1_ano/2_semestre/LSD/aula 04/P3/simulation/qsim/CounterDemo.msim.vcd
$comment
	File created using the following command:
		vcd file CounterDemo.msim.vcd -direction
$end
$date
	Thu Mar 20 00:19:33 2025
$end
$version
	Questa Intel Starter FPGA Edition Version 2023.3
$end
$timescale
	1ps
$end

$scope module counterloadupdown4_vhd_vec_tst $end
$var wire 1 ! clk $end
$var wire 1 " count [3] $end
$var wire 1 # count [2] $end
$var wire 1 $ count [1] $end
$var wire 1 % count [0] $end
$var wire 1 & dataIn [3] $end
$var wire 1 ' dataIn [2] $end
$var wire 1 ( dataIn [1] $end
$var wire 1 ) dataIn [0] $end
$var wire 1 * enable $end
$var wire 1 + load $end
$var wire 1 , reset $end
$var wire 1 - upDown $end

$scope module i1 $end
$var wire 1 . gnd $end
$var wire 1 / vcc $end
$var wire 1 0 unknown $end
$var wire 1 1 devoe $end
$var wire 1 2 devclrn $end
$var wire 1 3 devpor $end
$var wire 1 4 ww_devoe $end
$var wire 1 5 ww_devclrn $end
$var wire 1 6 ww_devpor $end
$var wire 1 7 ww_clk $end
$var wire 1 8 ww_upDown $end
$var wire 1 9 ww_enable $end
$var wire 1 : ww_load $end
$var wire 1 ; ww_reset $end
$var wire 1 < ww_dataIn [3] $end
$var wire 1 = ww_dataIn [2] $end
$var wire 1 > ww_dataIn [1] $end
$var wire 1 ? ww_dataIn [0] $end
$var wire 1 @ ww_count [3] $end
$var wire 1 A ww_count [2] $end
$var wire 1 B ww_count [1] $end
$var wire 1 C ww_count [0] $end
$var wire 1 D \count[0]~output_o\ $end
$var wire 1 E \count[1]~output_o\ $end
$var wire 1 F \count[2]~output_o\ $end
$var wire 1 G \count[3]~output_o\ $end
$var wire 1 H \clk~input_o\ $end
$var wire 1 I \enable~input_o\ $end
$var wire 1 J \dataIn[0]~input_o\ $end
$var wire 1 K \load~input_o\ $end
$var wire 1 L \s_count~3_combout\ $end
$var wire 1 M \reset~input_o\ $end
$var wire 1 N \s_count~4_combout\ $end
$var wire 1 O \upDown~input_o\ $end
$var wire 1 P \Add0~0_combout\ $end
$var wire 1 Q \Add0~1_combout\ $end
$var wire 1 R \s_count[1]~6_cout\ $end
$var wire 1 S \s_count[1]~7_combout\ $end
$var wire 1 T \dataIn[1]~input_o\ $end
$var wire 1 U \s_count~9_combout\ $end
$var wire 1 V \s_count[1]~8\ $end
$var wire 1 W \s_count[2]~10_combout\ $end
$var wire 1 X \dataIn[2]~input_o\ $end
$var wire 1 Y \s_count[2]~11\ $end
$var wire 1 Z \s_count[3]~12_combout\ $end
$var wire 1 [ \dataIn[3]~input_o\ $end
$var wire 1 \ s_count [3] $end
$var wire 1 ] s_count [2] $end
$var wire 1 ^ s_count [1] $end
$var wire 1 _ s_count [0] $end
$upscope $end
$upscope $end
$enddefinitions $end
#0
$dumpvars
0!
1*
0+
0,
0-
0.
1/
x0
11
12
13
14
15
16
07
08
19
0:
0;
0D
0E
0F
0G
0H
1I
0J
0K
1L
0M
1N
0O
1P
0Q
0R
1S
1T
1U
1V
1W
0X
0Y
1Z
0[
0&
0'
1(
0)
0<
0=
1>
0?
0\
0]
0^
0_
0"
0#
0$
0%
0@
0A
0B
0C
$end
#10000
1!
1-
17
18
1O
1H
1_
1^
1]
1\
0P
0W
0Z
1Z
1W
0L
1P
0S
0V
0N
1G
1F
1E
1D
0W
1Y
1@
1A
1B
1C
1%
1$
1#
1"
0Z
#20000
0!
07
0H
#30000
1!
17
1H
0_
0^
0]
0\
1Z
1W
0Y
1S
1V
1L
0P
0S
1N
0W
0Z
0G
0F
0E
0D
0@
0A
0B
0C
0%
0$
0#
0"
#40000
0!
1'
0(
1)
07
1?
0>
1=
1X
0T
1J
0H
#50000
1!
17
1H
1_
0L
1P
1S
0N
1D
1C
1%
#60000
0!
07
0H
#70000
1!
17
1H
0_
1^
0S
0V
1L
0P
1S
1V
1N
1W
1E
0D
0W
1B
0C
0%
1$
#80000
0!
07
0H
#90000
1!
17
1H
1_
0L
1P
0S
0V
0N
1D
1W
1C
1%
#100000
0!
1,
07
1;
1M
0H
#110000
1!
17
1H
0_
0^
1S
1V
1L
0P
0S
0W
0E
0D
0B
0C
0%
0$
#120000
0!
0'
0)
07
0?
0=
0X
0J
0H
#130000
1!
17
1H
#140000
0!
07
0H
#150000
1!
17
1H
#160000
0!
1'
0,
1&
07
1=
1<
0;
0M
1[
1X
0H
1N
#170000
1!
17
1H
1_
0L
1P
1S
0N
1D
1C
1%
#180000
0!
07
0H
#190000
1!
17
1H
0_
1^
0S
0V
1L
0P
1S
1V
1N
1W
1E
0D
0W
1B
0C
0%
1$
#200000
0!
0'
07
0=
0X
0H
#210000
1!
17
1H
1_
0L
1P
0S
0V
0N
1D
1W
1C
1%
#220000
0!
07
0H
#230000
1!
17
1H
0_
0^
1]
0W
1Y
1S
1V
1L
0P
0S
1N
1W
0Y
1Z
1F
0E
0D
0Z
1A
0B
0C
0%
0$
1#
#240000
0!
1'
0&
1)
1(
07
1?
1>
1=
0<
0[
1X
1T
1J
0H
#250000
1!
17
1H
1_
0L
1P
1S
0N
1D
1C
1%
#260000
0!
07
0H
#270000
1!
17
1H
0_
1^
0S
0V
1L
0P
1S
1V
1N
0W
1Y
1E
0D
1Z
1W
0Y
1B
0C
0%
1$
0Z
#280000
0!
0'
1&
0)
0(
07
0?
0>
0=
1<
1[
0X
0T
0J
0H
#290000
1!
17
1H
1_
0L
1P
0S
0V
0N
1D
0W
1Y
1C
1%
1Z
#300000
0!
1+
07
1:
1K
0H
#310000
1!
17
1H
0_
0^
0]
1\
0Z
1W
0Y
1S
1V
0P
0S
0W
1Z
1G
0F
0E
0D
1@
0A
0B
0C
0%
0$
0#
1"
#320000
0!
1(
07
1>
1T
0H
#330000
1!
17
1H
1^
1S
1E
1B
1$
#340000
0!
07
0H
#350000
1!
17
1H
#360000
0!
1'
07
1=
1X
0H
#370000
1!
17
1H
1]
1W
1F
1A
1#
#380000
0!
07
0H
#390000
1!
0+
17
0:
0K
1H
1L
1N
#400000
0!
1)
07
1?
1J
0H
#410000
1!
17
1H
1_
0L
1P
0S
0V
0N
1D
0W
1Y
1C
1%
0Z
#420000
0!
07
0H
#430000
1!
17
1H
0_
0^
0]
0\
1Z
1W
0Y
1S
1V
1L
0P
0S
1N
0W
0Z
0G
0F
0E
0D
0@
0A
0B
0C
0%
0$
0#
0"
#440000
0!
0)
0(
0&
07
0?
0>
0<
0[
0T
0J
0H
#450000
1!
17
1H
1_
0L
1P
1S
0N
1D
1C
1%
#460000
0!
07
0H
#470000
1!
17
1H
0_
1^
0S
0V
1L
0P
1S
1V
1N
1W
1E
0D
0W
1B
0C
0%
1$
#480000
0!
0'
07
0=
0X
0H
#490000
1!
17
1H
1_
0L
1P
0S
0V
0N
1D
1W
1C
1%
#500000
0!
07
0H
#510000
1!
17
1H
0_
0^
1]
0W
1Y
1S
1V
1L
0P
0S
1N
1W
0Y
1Z
1F
0E
0D
0Z
1A
0B
0C
0%
0$
1#
#520000
0!
1)
1&
0-
07
1?
1<
08
0O
1[
1J
0H
1P
0W
1Y
1Z
0Z
1S
#530000
1!
17
1H
1_
1^
0]
1W
0Y
0S
0V
0L
1Q
1R
0N
0W
1Y
1Z
0F
1E
1D
0Z
1S
0A
1B
1C
1%
1$
0#
#540000
0!
07
0H
#550000
1!
17
1H
0_
1L
0Q
0R
1N
0D
0S
0C
0%
#560000
0!
0)
1'
07
0?
1=
1X
0J
0H
#570000
1!
0*
17
09
0I
1H
1_
0^
0L
0U
1S
1V
1Q
1R
1W
0Y
0E
1D
1Z
0S
0V
0B
1C
1%
0$
0W
1Y
0Z
#580000
0!
07
0H
#590000
1!
17
1H
#600000
0!
1)
0'
07
1?
0=
0X
1J
0H
#610000
1!
17
1H
#620000
0!
07
0H
#630000
1!
17
1H
#640000
0!
0&
07
0<
0[
0H
#650000
1!
1*
17
19
1I
1H
0N
1U
#660000
0!
07
0H
#670000
1!
17
1H
0_
1L
0Q
0R
1N
0D
1S
1V
0C
0%
1W
0Y
1Z
#680000
0!
0)
07
0?
0J
0H
#690000
1!
1,
17
1;
1M
1H
1_
0N
0L
1Q
1R
1D
0S
0V
1C
1%
0W
1Y
0Z
#700000
0!
07
0H
#710000
1!
17
1H
0_
1L
0Q
0R
0D
1S
1V
0C
0%
1W
0Y
1Z
#720000
0!
1'
1(
07
1>
1=
1X
1T
0H
#730000
1!
17
1H
#740000
0!
07
0H
#750000
1!
17
1H
#760000
0!
0'
0,
1&
07
0=
1<
0;
0M
1[
0X
0H
1N
#770000
1!
17
1H
1_
1^
1]
1\
0Z
0W
1Y
0S
0V
0L
1Q
1R
0N
1W
1Z
1G
1F
1E
1D
1S
1@
1A
1B
1C
1%
1$
1#
1"
#780000
0!
07
0H
#790000
1!
17
1H
0_
1L
0Q
0R
1N
0D
0S
0C
0%
#800000
0!
1'
1)
07
1?
1=
1X
1J
0H
#810000
1!
17
1H
1_
0^
1S
1V
0L
1Q
1R
0N
0W
0E
1D
0S
0V
0B
1C
1%
0$
1W
#820000
0!
07
0H
#830000
1!
17
1H
0_
1L
0Q
0R
1N
0D
1S
1V
0C
0%
0W
#840000
0!
0'
0)
07
0?
0=
0X
0J
0H
#850000
1!
17
1H
1_
1^
0]
1W
0Y
0S
0V
0L
1Q
1R
0N
0W
1Y
0Z
0F
1E
1D
1Z
1S
0A
1B
1C
1%
1$
0#
#860000
0!
07
0H
#870000
1!
17
1H
0_
1L
0Q
0R
1N
0D
0S
0C
0%
#880000
0!
1'
1)
0&
0(
07
1?
0>
1=
0<
0[
1X
0T
1J
0H
#890000
1!
17
1H
1_
0^
1S
1V
0L
1Q
1R
0N
1W
0Y
0E
1D
0Z
0S
0V
0B
1C
1%
0$
0W
1Y
1Z
#900000
0!
07
0H
#910000
1!
17
1H
0_
1L
0Q
0R
1N
0D
1S
1V
0C
0%
1W
0Y
0Z
#920000
0!
0)
07
0?
0J
0H
#930000
1!
17
1H
1_
1^
1]
0\
1Z
0W
1Y
0S
0V
0L
1Q
1R
0N
1W
0Z
0G
1F
1E
1D
1S
0@
1A
1B
1C
1%
1$
1#
0"
#940000
0!
07
0H
#950000
1!
17
1H
0_
1L
0Q
0R
1N
0D
0S
0C
0%
#960000
0!
1(
07
1>
1T
0H
#970000
1!
17
1H
1_
0^
1S
1V
0L
1Q
1R
0N
0W
0E
1D
0S
0V
0B
1C
1%
0$
1W
#980000
0!
07
0H
#990000
1!
0*
17
09
0I
1H
0_
1N
0U
0N
0Q
0R
0D
1S
1V
0C
0%
0W
