2_semestre/LSD/aula 08/partedois/simulation/qsim/DrinksMachine.msim.vcd
$comment
	File created using the following command:
		vcd file DrinksMachine.msim.vcd -direction
$end
$date
	Tue May  6 11:40:27 2025
$end
$version
	Questa Intel Starter FPGA Edition Version 2021.2
$end
$timescale
	1ps
$end

$scope module drinksfsm_vhd_vec_tst $end
$var wire 1 ! C $end
$var wire 1 " clk $end
$var wire 1 # drink $end
$var wire 1 $ reset $end
$var wire 1 % V $end

$scope module i1 $end
$var wire 1 & gnd $end
$var wire 1 ' vcc $end
$var wire 1 ( unknown $end
$var wire 1 ) devoe $end
$var wire 1 * devclrn $end
$var wire 1 + devpor $end
$var wire 1 , ww_devoe $end
$var wire 1 - ww_devclrn $end
$var wire 1 . ww_devpor $end
$var wire 1 / ww_reset $end
$var wire 1 0 ww_clk $end
$var wire 1 1 ww_C $end
$var wire 1 2 ww_V $end
$var wire 1 3 ww_drink $end
$var wire 1 4 \Selector6~0clkctrl_INCLK_bus\ [3] $end
$var wire 1 5 \Selector6~0clkctrl_INCLK_bus\ [2] $end
$var wire 1 6 \Selector6~0clkctrl_INCLK_bus\ [1] $end
$var wire 1 7 \Selector6~0clkctrl_INCLK_bus\ [0] $end
$var wire 1 8 \clk~inputclkctrl_INCLK_bus\ [3] $end
$var wire 1 9 \clk~inputclkctrl_INCLK_bus\ [2] $end
$var wire 1 : \clk~inputclkctrl_INCLK_bus\ [1] $end
$var wire 1 ; \clk~inputclkctrl_INCLK_bus\ [0] $end
$var wire 1 < \drink~output_o\ $end
$var wire 1 = \clk~input_o\ $end
$var wire 1 > \reset~input_o\ $end
$var wire 1 ? \clk~inputclkctrl_outclk\ $end
$var wire 1 @ \V~input_o\ $end
$var wire 1 A \C~input_o\ $end
$var wire 1 B \Selector6~0_combout\ $end
$var wire 1 C \Selector6~0clkctrl_outclk\ $end
$var wire 1 D \s_nextState.ESTADO1_267~combout\ $end
$var wire 1 E \s_currentState~13_combout\ $end
$var wire 1 F \s_currentState.ESTADO1~q\ $end
$var wire 1 G \Selector2~0_combout\ $end
$var wire 1 H \s_nextState.ESTADO2_244~combout\ $end
$var wire 1 I \s_currentState~12_combout\ $end
$var wire 1 J \s_currentState.ESTADO2~q\ $end
$var wire 1 K \Selector3~0_combout\ $end
$var wire 1 L \s_nextState.ESTADO3_221~combout\ $end
$var wire 1 M \s_currentState~10_combout\ $end
$var wire 1 N \s_currentState.ESTADO3~q\ $end
$var wire 1 O \Selector4~0_combout\ $end
$var wire 1 P \s_nextState.ESTADO4_198~combout\ $end
$var wire 1 Q \s_currentState~11_combout\ $end
$var wire 1 R \s_currentState.ESTADO4~q\ $end
$var wire 1 S \Selector5~0_combout\ $end
$var wire 1 T \s_nextState.ESTADO5_175~combout\ $end
$var wire 1 U \s_currentState~9_combout\ $end
$var wire 1 V \s_currentState.ESTADO5~q\ $end
$var wire 1 W \Selector0~0_combout\ $end
$var wire 1 X \s_nextState.ESTADO6_152~combout\ $end
$var wire 1 Y \s_currentState~8_combout\ $end
$var wire 1 Z \s_currentState.ESTADO6~q\ $end
$upscope $end
$upscope $end
$enddefinitions $end
#0
$dumpvars
0!
0"
0#
0$
0%
0&
1'
x(
1)
1*
1+
1,
1-
1.
0/
00
01
02
03
0<
0=
0>
0?
0@
0A
0B
0C
xD
xE
0F
0G
xH
xI
0J
0K
xL
xM
0N
1O
xP
xQ
0R
0S
xT
xU
0V
0W
xX
xY
0Z
18
19
1:
0;
14
15
16
07
$end
#10000
1"
1%
10
12
1@
1=
1;
xZ
1B
1G
0O
17
1?
1C
x<
xF
xJ
xN
xR
xV
x3
xW
xK
xS
xG
xO
1H
0L
0P
0T
0X
x#
0Y
0U
0Q
0M
1I
xP
xH
xT
xL
xX
xY
xM
xU
xI
xQ
#20000
0"
00
0=
0;
0?
#30000
1"
10
1=
1;
1?
#40000
0"
00
0=
0;
0?
#50000
1"
10
1=
1;
1?
#60000
0"
0%
00
02
0@
0=
0;
xB
0G
0K
x7
0L
0H
0?
0I
0M
xC
#70000
1"
10
1=
1;
1?
0J
0N
0S
#80000
0"
00
0=
0;
0?
#90000
1"
1%
10
12
1@
1=
1;
1B
xG
0O
xS
17
xH
1?
xI
1C
0P
0Q
#100000
0"
00
0=
0;
0?
#110000
1"
10
1=
1;
1?
xJ
0R
xK
0S
0T
xL
xM
0U
#120000
0"
00
0=
0;
0?
#130000
1"
10
1=
1;
1?
xN
0V
xO
0W
0X
xP
xQ
0Y
#140000
0"
0%
00
02
0@
0=
0;
xB
0G
0K
xS
xW
x7
xX
xT
0L
0H
0?
0I
0M
xU
xY
xC
#150000
1"
10
1=
1;
1?
0J
0N
xR
xV
0S
#160000
0"
00
0=
0;
0?
#170000
1"
1%
10
12
1@
1=
1;
1B
xG
0O
xS
17
xH
1?
xI
1C
0P
0Q
#180000
0"
00
0=
0;
0?
#190000
1"
10
1=
1;
1?
xJ
0R
xK
0S
0T
xL
xM
0U
#200000
0"
00
0=
0;
0?
#210000
1"
10
1=
1;
1?
xN
0V
xO
0W
0X
xP
xQ
0Y
#220000
0"
0%
00
02
0@
0=
0;
xB
0G
0K
xS
xW
x7
xX
xT
0L
0H
0?
0I
0M
xU
xY
xC
#230000
1"
10
1=
1;
1?
0J
0N
xR
xV
0S
#240000
0"
00
0=
0;
0?
#250000
1"
10
1=
1;
1?
#260000
0"
1%
00
12
1@
0=
0;
1B
xG
0O
xS
17
xH
0?
xI
1C
0P
0Q
#270000
1"
10
1=
1;
1?
xJ
0R
xK
0S
0T
xL
xM
0U
#280000
0"
00
0=
0;
0?
#290000
1"
10
1=
1;
1?
xN
0V
xO
0W
0X
xP
xQ
0Y
#300000
0"
00
0=
0;
0?
#310000
1"
10
1=
1;
0Z
0D
1?
1E
0<
xR
03
xS
0#
xT
xU
#320000
0"
0%
00
02
0@
0=
0;
0B
0G
0K
xW
07
xX
0L
0H
0?
0I
0M
xY
0C
#330000
1"
10
1=
1;
xZ
xB
1?
x7
x<
1F
0J
0N
xV
x3
xC
0S
0O
x#
xD
xE
#340000
0"
00
0=
0;
0?
#350000
1"
10
1=
1;
1?
xF
xO
#360000
0"
1%
00
12
1@
0=
0;
1B
xG
0O
xS
17
xH
0?
xI
1C
0P
0Q
#370000
1"
10
1=
1;
1?
xJ
0R
xK
0S
0T
xL
xM
0U
#380000
0"
00
0=
0;
0?
#390000
1"
10
1=
1;
1?
xN
0V
xO
0W
0X
xP
xQ
0Y
#400000
0"
00
0=
0;
0?
#410000
1"
10
1=
1;
0Z
0D
1?
1E
0<
xR
03
xS
0#
xT
xU
#420000
0"
00
0=
0;
0?
#430000
1"
0%
10
02
0@
1=
1;
0B
0G
0K
xW
07
xX
0L
0H
1?
0I
0M
xY
0C
1F
xV
0O
#440000
0"
1!
00
11
1A
0=
0;
1B
17
0?
1C
0P
0Q
#450000
1"
10
1=
1;
xZ
xD
1?
xE
x<
0J
0N
0R
x3
0S
x#
0T
0U
#460000
0"
00
0=
0;
0?
#470000
1"
10
1=
1;
1?
xF
0V
0W
xO
xP
0X
0Y
xQ
#480000
0"
00
0=
0;
0?
#490000
1"
10
1=
1;
0Z
0D
1?
1E
0<
xR
03
xW
0#
xX
xY
#500000
0"
00
0=
0;
0?
#510000
1"
0!
10
01
0A
1=
1;
xZ
0B
07
xB
xD
1?
x7
xE
x<
0C
1F
x3
xC
0O
x#
#520000
0"
00
0=
0;
0?
#530000
1"
1!
10
11
1A
1=
1;
1B
17
1?
1C
xF
xO
0P
0Q
xP
xQ
#540000
0"
00
0=
0;
0?
#550000
1"
10
1=
1;
1?
#560000
0"
00
0=
0;
0?
#570000
1"
10
1=
1;
1?
#580000
0"
00
0=
0;
0?
#590000
1"
10
1=
1;
1?
#600000
0"
00
0=
0;
0?
#610000
1"
0!
10
01
0A
1=
1;
xB
x7
1?
xC
#620000
0"
00
0=
0;
0?
#630000
1"
10
1=
1;
1?
#640000
0"
00
0=
0;
0?
#650000
1"
10
1=
1;
1?
#660000
0"
00
0=
0;
0?
#670000
1"
10
1=
1;
1?
#680000
0"
00
0=
0;
0?
#690000
1"
10
1=
1;
1?
#700000
0"
00
0=
0;
0?
#710000
1"
10
1=
1;
1?
#720000
0"
00
0=
0;
0?
#730000
1"
10
1=
1;
1?
#740000
0"
00
0=
0;
0?
#750000
1"
10
1=
1;
1?
#760000
0"
00
0=
0;
0?
#770000
1"
10
1=
1;
1?
#780000
0"
00
0=
0;
0?
#790000
1"
10
1=
1;
1?
#800000
0"
00
0=
0;
0?
#810000
1"
10
1=
1;
1?
#820000
0"
00
0=
0;
0?
#830000
1"
10
1=
1;
1?
#840000
0"
00
0=
0;
0?
#850000
1"
10
1=
1;
1?
#860000
0"
00
0=
0;
0?
#870000
1"
10
1=
1;
1?
#880000
0"
00
0=
0;
0?
#890000
1"
10
1=
1;
1?
#900000
0"
00
0=
0;
0?
#910000
1"
10
1=
1;
1?
#920000
0"
00
0=
0;
0?
#930000
1"
10
1=
1;
1?
#940000
0"
00
0=
0;
0?
#950000
1"
10
1=
1;
1?
#960000
0"
00
0=
0;
0?
#970000
1"
10
1=
1;
1?
#980000
0"
00
0=
0;
0?
#990000
1"
10
1=
1;
1?
