1_semestre/ISD/Praticas/Quartos/ficha 10/simulation/qsim/ficha_10.msim.vcd
$comment
	File created using the following command:
		vcd file ficha_10.msim.vcd -direction
$end
$date
	Tue Nov 19 11:42:58 2024
$end
$version
	Questa Intel Starter FPGA Edition Version 2021.2
$end
$timescale
	1ps
$end

$scope module ficha_10_vlg_vec_tst $end
$var reg 1 ! pin_name1 $end
$var reg 1 " pin_name2 $end
$var wire 1 # pin_name3 $end

$scope module i1 $end
$var wire 1 $ gnd $end
$var wire 1 % vcc $end
$var wire 1 & unknown $end
$var tri1 1 ' devclrn $end
$var tri1 1 ( devpor $end
$var tri1 1 ) devoe $end
$var wire 1 * pin_name3~output_o $end
$var wire 1 + pin_name1~input_o $end
$var wire 1 , pin_name2~input_o $end
$var wire 1 - inst~combout $end
$upscope $end
$upscope $end
$enddefinitions $end
#0
$dumpvars
0!
0"
0#
0$
1%
x&
1'
1(
1)
0*
0+
0,
0-
$end
#50000
1!
1+
#100000
1"
0!
1,
0+
#150000
1!
1+
1-
1*
1#
#200000
0"
0!
0,
0+
0-
0*
0#
#250000
1!
1+
#300000
1"
0!
1,
0+
#350000
1!
1+
1-
1*
1#
#400000
0"
0!
0,
0+
0-
0*
0#
#450000
1!
1+
#500000
1"
0!
1,
0+
#550000
1!
1+
1-
1*
1#
#600000
0"
0!
0,
0+
0-
0*
0#
#650000
1!
1+
#700000
1"
0!
1,
0+
#750000
1!
1+
1-
1*
1#
#800000
0"
0!
0,
0+
0-
0*
0#
#850000
1!
1+
#900000
1"
0!
1,
0+
#950000
1!
1+
1-
1*
1#
