2_semestre/LSD/aula 02/Dec2_4EnDemo/simulation/qsim/Dec2_4EnDemo.msim.vcd
$comment
	File created using the following command:
		vcd file Dec2_4EnDemo.msim.vcd -direction
$end
$date
	Tue Feb 25 14:14:43 2025
$end
$version
	Questa Intel Starter FPGA Edition Version 2021.2
$end
$timescale
	1ps
$end

$scope module Dec2_4En_vlg_vec_tst $end
$var reg 1 ! enable $end
$var reg 2 " inputs [1:0] $end
$var wire 1 # outputs [3] $end
$var wire 1 $ outputs [2] $end
$var wire 1 % outputs [1] $end
$var wire 1 & outputs [0] $end

$scope module i1 $end
$var wire 1 ' gnd $end
$var wire 1 ( vcc $end
$var wire 1 ) unknown $end
$var tri1 1 * devclrn $end
$var tri1 1 + devpor $end
$var tri1 1 , devoe $end
$var wire 1 - outputs[0]~output_o $end
$var wire 1 . outputs[1]~output_o $end
$var wire 1 / outputs[2]~output_o $end
$var wire 1 0 outputs[3]~output_o $end
$var wire 1 1 enable~input_o $end
$var wire 1 2 inputs[1]~input_o $end
$var wire 1 3 inputs[0]~input_o $end
$var wire 1 4 outputs~0_combout $end
$var wire 1 5 outputs~1_combout $end
$var wire 1 6 outputs~2_combout $end
$var wire 1 7 outputs~3_combout $end
$upscope $end
$upscope $end
$enddefinitions $end
#0
$dumpvars
0!
b1 "
0&
0%
0$
0#
0'
1(
x)
1*
1+
1,
0-
0.
0/
00
01
02
13
04
05
06
07
$end
#10000
b11 "
b10 "
03
12
#20000
b11 "
13
#30000
1!
b1 "
b0 "
11
03
02
14
1-
1&
#40000
b1 "
13
15
04
0-
1.
1%
0&
#50000
b11 "
b10 "
03
12
16
05
0.
1/
1$
0%
#60000
b11 "
13
17
06
0/
10
1#
0$
#70000
0!
b1 "
b0 "
01
03
02
07
00
0#
#80000
b1 "
13
#90000
b11 "
b10 "
03
12
#100000
b11 "
13
#110000
1!
b1 "
b0 "
11
03
02
14
1-
1&
#120000
b1 "
13
15
04
0-
1.
1%
0&
#130000
b11 "
b10 "
03
12
16
05
0.
1/
1$
0%
#140000
b11 "
13
17
06
0/
10
1#
0$
#150000
b1 "
b0 "
03
02
07
14
1-
00
0#
1&
#160000
0!
b1 "
01
13
04
0-
0&
#170000
b11 "
b10 "
03
12
#180000
b11 "
13
#190000
b1 "
b0 "
03
02
#200000
b1 "
13
#210000
b11 "
b10 "
03
12
#220000
b11 "
13
#230000
b1 "
b0 "
03
02
#240000
b1 "
13
#250000
1!
b11 "
b10 "
11
03
12
16
1/
1$
#260000
b11 "
13
17
06
0/
10
1#
0$
#270000
b1 "
b0 "
03
02
07
14
1-
00
0#
1&
#280000
b1 "
13
15
04
0-
1.
1%
0&
#290000
b11 "
b10 "
03
12
16
05
0.
1/
1$
0%
#300000
0!
b11 "
01
13
06
0/
0$
#310000
b1 "
b0 "
03
02
#320000
b1 "
13
#330000
b11 "
b10 "
03
12
#340000
b11 "
13
#350000
1!
b1 "
b0 "
11
03
02
14
1-
1&
#360000
b1 "
13
15
04
0-
1.
1%
0&
#370000
b11 "
b10 "
03
12
16
05
0.
1/
1$
0%
#380000
b11 "
13
17
06
0/
10
1#
0$
#390000
b1 "
b0 "
03
02
07
14
1-
00
0#
1&
#400000
0!
b1 "
01
13
04
0-
0&
#410000
b11 "
b10 "
03
12
#420000
b11 "
13
#430000
b1 "
b0 "
03
02
#440000
b1 "
13
#450000
1!
b11 "
b10 "
11
03
12
16
1/
1$
#460000
b11 "
13
17
06
0/
10
1#
0$
#470000
b1 "
b0 "
03
02
07
14
1-
00
0#
1&
#480000
b1 "
13
15
04
0-
1.
1%
0&
#490000
b11 "
b10 "
03
12
16
05
0.
1/
1$
0%
#500000
0!
b11 "
01
13
06
0/
0$
#510000
b1 "
b0 "
03
02
#520000
b1 "
13
#530000
b11 "
b10 "
03
12
#540000
b11 "
13
#550000
1!
b1 "
b0 "
11
03
02
14
1-
1&
#560000
b1 "
13
15
04
0-
1.
1%
0&
#570000
b11 "
b10 "
03
12
16
05
0.
1/
1$
0%
#580000
b11 "
13
17
06
0/
10
1#
0$
#590000
b1 "
b0 "
03
02
07
14
1-
00
0#
1&
#600000
0!
b1 "
01
13
04
0-
0&
#610000
b11 "
b10 "
03
12
#620000
b11 "
13
#630000
b1 "
b0 "
03
02
#640000
b1 "
13
#650000
1!
b11 "
b10 "
11
03
12
16
1/
1$
#660000
b11 "
13
17
06
0/
10
1#
0$
#670000
b1 "
b0 "
03
02
07
14
1-
00
0#
1&
#680000
b1 "
13
15
04
0-
1.
1%
0&
#690000
b11 "
b10 "
03
12
16
05
0.
1/
1$
0%
#700000
0!
b11 "
01
13
06
0/
0$
#710000
b1 "
b0 "
03
02
#720000
b1 "
13
#730000
b11 "
b10 "
03
12
#740000
b11 "
13
#750000
1!
b1 "
b0 "
11
03
02
14
1-
1&
#760000
b1 "
13
15
04
0-
1.
1%
0&
#770000
b11 "
b10 "
03
12
16
05
0.
1/
1$
0%
#780000
b11 "
13
17
06
0/
10
1#
0$
#790000
b1 "
b0 "
03
02
07
14
1-
00
0#
1&
#800000
0!
b1 "
01
13
04
0-
0&
#810000
b11 "
b10 "
03
12
#820000
b11 "
13
#830000
b1 "
b0 "
03
02
#840000
b1 "
13
#850000
1!
b11 "
b10 "
11
03
12
16
1/
1$
#860000
b11 "
13
17
06
0/
10
1#
0$
#870000
b1 "
b0 "
03
02
07
14
1-
00
0#
1&
#880000
b1 "
13
15
04
0-
1.
1%
0&
#890000
b11 "
b10 "
03
12
16
05
0.
1/
1$
0%
#900000
0!
b11 "
01
13
06
0/
0$
#910000
b1 "
b0 "
03
02
#920000
b1 "
13
#930000
b11 "
b10 "
03
12
#940000
b11 "
13
#950000
1!
b1 "
b0 "
11
03
02
14
1-
1&
#960000
b1 "
13
15
04
0-
1.
1%
0&
#970000
b11 "
b10 "
03
12
16
05
0.
1/
1$
0%
#980000
b11 "
13
17
06
0/
10
1#
0$
#990000
b1 "
b0 "
03
02
07
14
1-
00
0#
1&
