2_semestre/LSD/aula 02/Parte2/simulation/qsim/Mux2_1Demo.msim.vcd
$comment
	File created using the following command:
		vcd file Mux2_1Demo.msim.vcd -direction
$end
$date
	Tue Feb 25 14:40:34 2025
$end
$version
	Questa Intel Starter FPGA Edition Version 2021.2
$end
$timescale
	1ps
$end

$scope module mux2_1_vhd_vec_tst $end
$var wire 1 ! A $end
$var wire 1 " B $end
$var wire 1 # Sel $end
$var wire 1 $ Y $end

$scope module i1 $end
$var wire 1 % gnd $end
$var wire 1 & vcc $end
$var wire 1 ' unknown $end
$var wire 1 ( devoe $end
$var wire 1 ) devclrn $end
$var wire 1 * devpor $end
$var wire 1 + ww_devoe $end
$var wire 1 , ww_devclrn $end
$var wire 1 - ww_devpor $end
$var wire 1 . ww_A $end
$var wire 1 / ww_B $end
$var wire 1 0 ww_Sel $end
$var wire 1 1 ww_Y $end
$var wire 1 2 \Y~output_o\ $end
$var wire 1 3 \B~input_o\ $end
$var wire 1 4 \A~input_o\ $end
$var wire 1 5 \Sel~input_o\ $end
$var wire 1 6 \Y~0_combout\ $end
$upscope $end
$upscope $end
$enddefinitions $end
#0
$dumpvars
0!
0"
0#
0$
0%
1&
x'
1(
1)
1*
1+
1,
1-
0.
0/
00
01
02
03
04
05
06
$end
#25000
1#
10
15
#50000
0#
1!
00
1.
14
05
16
12
11
1$
#75000
1#
10
15
06
02
01
0$
#100000
0#
0!
1"
00
0.
1/
13
04
05
#125000
1#
10
15
16
12
11
1$
#150000
0#
1!
00
1.
14
05
#175000
1#
10
15
#200000
0#
0!
0"
00
0.
0/
03
04
05
06
02
01
0$
#225000
1#
10
15
#250000
0#
1!
00
1.
14
05
16
12
11
1$
#275000
1#
10
15
06
02
01
0$
#300000
0#
0!
1"
00
0.
1/
13
04
05
#325000
1#
10
15
16
12
11
1$
#350000
0#
1!
00
1.
14
05
#375000
1#
10
15
#400000
0#
0!
0"
00
0.
0/
03
04
05
06
02
01
0$
#425000
1#
10
15
#450000
0#
1!
00
1.
14
05
16
12
11
1$
#475000
1#
10
15
06
02
01
0$
#500000
0#
0!
1"
00
0.
1/
13
04
05
#525000
1#
10
15
16
12
11
1$
#550000
0#
1!
00
1.
14
05
#575000
1#
10
15
#600000
0#
0!
0"
00
0.
0/
03
04
05
06
02
01
0$
#625000
1#
10
15
#650000
0#
1!
00
1.
14
05
16
12
11
1$
#675000
1#
10
15
06
02
01
0$
#700000
0#
0!
1"
00
0.
1/
13
04
05
#725000
1#
10
15
16
12
11
1$
#750000
0#
1!
00
1.
14
05
#775000
1#
10
15
#800000
0#
0!
0"
00
0.
0/
03
04
05
06
02
01
0$
#825000
1#
10
15
#850000
0#
1!
00
1.
14
05
16
12
11
1$
#875000
1#
10
15
06
02
01
0$
#900000
0#
0!
1"
00
0.
1/
13
04
05
#925000
1#
10
15
16
12
11
1$
#950000
0#
1!
00
1.
14
05
#975000
1#
10
15
